あ
ア
A

い
イ
I

う
ウ
U

え
エ
E

お
オ
O

か
カ
KA

き
キ
KI

く
ク
KU

け
ケ
KE

こ
コ
KO

さ
サ
SA

し
シ
SHI

す
ス
SU

せ
セ
SE

そ
ソ
SO

た
タ
TA

ち
チ
CHI

つ
ツ
TSU

て
テ
TE

と
ト
TO

な
ナ
NA

に
ニ
NI

ぬ
ヌ
NU

ね
ネ
NE

の
ノ
NO

は
ハ
HA

ひ
ヒ
HI

ふ
フ
FU

へ
ヘ
HE

ほ
ホ
HO

ま
マ
MA

み
ミ
MI

む
ム
MU

め
メ
ME

も
モ
MO

や
ヤ
YA

ゆ
ユ
YU

よ
ヨ
YO

ら
ラ
RA

り
リ
RI

る
ル
RU

れ
レ
RE

ろ
ロ
RO

わ
ワ
WA

を
ヲ
WO

ん
ン
N

が
ガ
GA

ぎ
ギ
GI

ぐ
グ
GU

げ
ゲ
GE

ご
ゴ
GO

ざ
ザ
ZA

じ
ジ
JI

ず
ズ
ZU

ぜ
ゼ
ZE

ぞ
ゾ
ZO

だ
ダ
DA

ぢ
ヂ
JI

づ
ヅ
ZU

で
デ
DE

ど
ド
DO

ば
バ
BA

び
ビ
BI

ぶ
ブ
BU

べ
ベ
BE

ぼ
ボ
BO

ぱ
パ
PA

ぴ
ピ
PI

ぷ
プ
PU

ぺ
ペ
PE

ぽ
ポ
PO