<?xml version="1.0" encoding="UTF-8"?>
<svg height="16px" viewBox="0 0 16 16" width="16px" xmlns="http://www.w3.org/2000/svg">
    <path d="m 5 0 c -2.128906 0.00390625 -3.894531 1.699219 -3.988281 3.824219 c -0.003907 0.046875 -0.011719 0.09375 -0.011719 0.175781 v 9 c 0 0.5 0.191406 0.964844 0.5 1.316406 l -0.003906 0.003906 c 0.011718 0.011719 0.027344 0.023438 0.039062 0.035157 c 0.019532 0.023437 0.035156 0.042969 0.054688 0.0625 c 0.007812 0.007812 0.019531 0.011719 0.027344 0.019531 c 0.433593 0.382812 1.082031 0.5625 1.46875 0.5625 h 9.914062 c 1.089844 0 2 -0.910156 2 -2 v -9 c 0 -1.089844 -0.910156 -2 -2 -2 h -4.734375 c -0.71875 -1.15625 -1.867187 -2 -3.265625 -2 z m 0 2 c 0.851562 0 1.601562 0.53125 1.886719 1.332031 c 0.140625 0.402344 0.519531 0.667969 0.941406 0.667969 h 2.171875 v 9 h -1.734375 c -0.71875 -1.15625 -1.867187 -2 -3.265625 -2 c -0.722656 0 -1.398438 0.230469 -2 0.582031 v -7.582031 c 0.003906 -0.027344 0.007812 -0.054688 0.011719 -0.082031 c 0.042969 -1.082031 0.910156 -1.914063 1.988281 -1.917969 z m 6 2 h 2 v 1 h -2 z m 0 2 h 2 v 2 h -2 z m 0 3 h 2 v 2 h -2 z m 0 3 h 2 v 1 h -2 z m -6 1 c 0.726562 0 1.378906 0.386719 1.730469 1 h -3.457031 c 0.355468 -0.613281 1.007812 -1 1.726562 -1 z m 0 0" fill="#241f31"/>
</svg>
