<?xml version="1.0" encoding="UTF-8"?>
<svg height="128px" viewBox="0 0 128 128" width="128px" xmlns="http://www.w3.org/2000/svg" xmlns:xlink="http://www.w3.org/1999/xlink">
    <defs>
        <filter id="a" height="100%" width="100%" x="0%" y="0%">
            <feColorMatrix color-interpolation-filters="sRGB" values="0 0 0 0 1 0 0 0 0 1 0 0 0 0 1 0 0 0 1 0"/>
        </filter>
        <linearGradient id="b" gradientUnits="userSpaceOnUse" x1="12" x2="116" y1="110" y2="110">
            <stop offset="0" stop-color="#d1817f"/>
            <stop offset="0.0410522" stop-color="#e2aeae"/>
            <stop offset="0.0769231" stop-color="#e2afae"/>
            <stop offset="0.923077" stop-color="#e2afae"/>
            <stop offset="0.961538" stop-color="#f6bebb"/>
            <stop offset="1" stop-color="#af736e"/>
        </linearGradient>
        <linearGradient id="c" gradientUnits="userSpaceOnUse" x1="12" x2="102" y1="100" y2="100">
            <stop offset="0" stop-color="#db9e94"/>
            <stop offset="0.116031" stop-color="#f9c6c4"/>
            <stop offset="0.183444" stop-color="#faccc9"/>
            <stop offset="0.955556" stop-color="#faccc9"/>
            <stop offset="1" stop-color="#f7a19b"/>
        </linearGradient>
        <linearGradient id="d" gradientUnits="userSpaceOnUse" x1="12" x2="116" y1="54" y2="54">
            <stop offset="0" stop-color="#feedec"/>
            <stop offset="0.0769179" stop-color="#fef6f6"/>
            <stop offset="0.153846" stop-color="#feedec"/>
            <stop offset="0.192308" stop-color="#fce3e1"/>
            <stop offset="0.230769" stop-color="#feedec"/>
            <stop offset="1" stop-color="#feedec"/>
        </linearGradient>
        <clipPath id="e">
            <path d="m 12 16 h 104 v 100 h -104 z m 0 0"/>
        </clipPath>
        <clipPath id="f">
            <path d="m 12 16 h 104 v 92 c 0 4.417969 -3.582031 8 -8 8 h -88 c -4.417969 0 -8 -3.582031 -8 -8 z m 0 0"/>
        </clipPath>
        <mask id="g">
            <g filter="url(#a)">
                <rect fill-opacity="0.387074" height="153.6" width="153.6" x="-12.8" y="-12.8"/>
            </g>
        </mask>
        <mask id="h">
            <g filter="url(#a)">
                <rect fill-opacity="0.257304" height="153.6" width="153.6" x="-12.8" y="-12.8"/>
            </g>
        </mask>
        <clipPath id="i">
            <path d="m 12 16 h 104 v 100 h -104 z m 0 0"/>
        </clipPath>
        <clipPath id="j">
            <path d="m 12 16 h 104 v 92 c 0 4.417969 -3.582031 8 -8 8 h -88 c -4.417969 0 -8 -3.582031 -8 -8 z m 0 0"/>
        </clipPath>
        <mask id="k">
            <g filter="url(#a)">
                <rect fill-opacity="0.387074" height="221.184" width="221.184" x="-46.592" y="-46.592"/>
            </g>
        </mask>
        <linearGradient id="l" gradientUnits="userSpaceOnUse" x1="20" x2="111" y1="124.911469" y2="124.911469">
            <stop offset="0" stop-color="#a22e2e"/>
            <stop offset="1" stop-color="#c03636" stop-opacity="0"/>
        </linearGradient>
        <clipPath id="m">
            <rect height="152" width="192"/>
        </clipPath>
        <g id="n" clip-path="url(#m)">
            <path d="m 20 119 c 0.046875 3.902344 5.414062 7.089844 8.125 7.089844 l 82.875 0.910156 l -82.949219 0.910156 c -2.695312 0 -8.035156 -3.3125 -8.050781 -6.910156 v 1 c 0.226562 4.261719 5.378906 7 7.953125 7 h 83.046875 l -82.941406 1.824219 c -2.945313 0 -8.007813 -2.988281 -8.058594 -6.824219 z m 0 0" fill="url(#l)"/>
        </g>
        <mask id="o">
            <g filter="url(#a)">
                <rect fill-opacity="0.257304" height="221.184" width="221.184" x="-46.592" y="-46.592"/>
            </g>
        </mask>
        <clipPath id="p">
            <rect height="152" width="192"/>
        </clipPath>
        <g id="q" clip-path="url(#p)">
            <path d="m 124.5 116.5 c 0.070312 6.792969 -6.097656 9.5 -12.5 9.5 h 4 c 3.449219 0 6.765625 -1.847656 8.429688 -4.605469 c -0.523438 4.261719 -6.894532 6.605469 -12.429688 6.605469 h 4 c 3.449219 0 6.765625 -1.847656 8.429688 -4.605469 c -1.394532 5.457031 -6.894532 6.605469 -12.429688 6.605469 h 4 c 5.242188 0 9.789062 -4.257812 9.789062 -9.5 h -0.210937 c 0.136719 -0.644531 0.210937 -1.3125 0.210937 -2 h -0.210937 c 0.136719 -0.644531 -0.078125 -1.3125 -0.078125 -2 z m 0 0" fill="#a51d2d"/>
        </g>
        <clipPath id="r">
            <rect height="128" width="128"/>
        </clipPath>
        <clipPath id="s">
            <rect height="128" width="128"/>
        </clipPath>
        <mask id="t">
            <g filter="url(#a)">
                <g clip-path="url(#s)" filter="url(#a)">
                    <g clip-path="url(#r)">
                        <path d="m 12 24 h 104 v 84 c 0 4.417969 -3.582031 8 -8 8 h -88 c -4.417969 0 -8 -3.582031 -8 -8 z m 0 0" fill="url(#b)"/>
                        <path d="m 12 92 h 90 v 16 h -82 c -4.417969 0 -8 -3.582031 -8 -8 z m 0 0" fill="url(#c)"/>
                        <path d="m 20 0 c -4.417969 0 -8 3.582031 -8 8 v 92 c 0 -4.417969 3.582031 -8 8 -8 c 3.644531 0.097656 5.65625 1.785156 6.75 4.160156 c 1.835938 3.980469 4.832031 7.839844 9.25 7.839844 h 62 c 2.210938 0 4 1.789062 4 4 h 6 c 4.417969 0 8 -3.582031 8 -8 v -80 c 0 -4.417969 -3.582031 -8 -8 -8 h -71.976562 c -4.429688 0 -7.230469 -3.949219 -9.265626 -7.824219 c -1.199218 -2.285156 -3.320312 -3.898437 -6.757812 -4.175781 z m 0 0" fill="url(#d)"/>
                        <path d="m 116 243 h -13" fill="none" stroke="#c71a1a" stroke-width="2" transform="matrix(1 0 0 1 0 -172)"/>
                        <path d="m 103 288 v -104" fill="none" stroke="#c71a1a" stroke-width="2" transform="matrix(1 0 0 1 0 -172)"/>
                        <path d="m 103 288 v -8" fill="none" stroke="#7e1717" stroke-width="2" transform="matrix(1 0 0 1 0 -172)"/>
                        <path d="m 103 195 h 13" fill="none" stroke="#c71a1a" stroke-width="2" transform="matrix(1 0 0 1 0 -172)"/>
                        <g clip-path="url(#i)">
                            <g clip-path="url(#j)">
                                <g mask="url(#k)">
                                    <use transform="matrix(1 0 0 1 -8 -16)" xlink:href="#n"/>
                                </g>
                                <g mask="url(#o)">
                                    <use transform="matrix(1 0 0 1 -8 -16)" xlink:href="#q"/>
                                </g>
                            </g>
                        </g>
                        <path d="m 65.003906 38.683594 l -6.316406 -0.683594 c 0.042969 3.199219 -0.425781 6.828125 -1.238281 10.667969 c -1.191407 5.375 -4.394531 16.640625 -9.46875 23.464843 l 5.585937 2.21875 c 4.4375 -7.210937 7.894532 -19.371093 9.304688 -25.386718 c 0.425781 -2.175782 0.980468 -4.820313 1.363281 -6.742188 c 0.257813 -1.066406 0.511719 -2.429687 0.769531 -3.539062 z m 14.71875 3.96875 l -5.121094 2.175781 c 3.074219 3.796875 6.101563 11.476563 7.210938 16.253906 l 5.417969 -2.515625 c -1.320313 -4.097656 -4.90625 -12.203125 -7.507813 -15.914062 z m -32 4.777344 l 0.511719 5.757812 c 1.28125 -0.210938 3.5 -0.511719 4.734375 -0.679688 c 2.347656 -0.300781 9.6875 -1.238281 12.246094 -1.238281 c 2.644531 0 4.140625 0.511719 4.140625 3.925781 c 0 4.179688 -0.554688 9.386719 -1.75 11.773438 c -0.683594 1.410156 -1.75 1.835938 -3.199219 1.835938 c -1.109375 0 -3.542969 -0.425782 -5.207031 -0.894532 l 0.898437 5.632813 c 1.492188 0.339843 3.496094 0.597656 5.160156 0.597656 c 3.199219 0 5.546876 -0.941406 7 -3.925781 c 1.789063 -3.671875 2.386719 -10.582032 2.386719 -15.617188 c 0 -6.1875 -3.199219 -8.191406 -7.679687 -8.191406 c -3.199219 0 -11.261719 0.9375 -14.675782 1.023438 c -1.578124 0.042968 -3.03125 0.085937 -4.566406 0 z m 0 0" fill="#f66151"/>
                        <path d="m 116 267 h -13" fill="none" stroke="#c71a1a" stroke-width="2" transform="matrix(1 0 0 1 0 -172)"/>
                        <path d="m 103 219 h 13" fill="none" stroke="#c71a1a" stroke-width="2" transform="matrix(1 0 0 1 0 -172)"/>
                    </g>
                </g>
            </g>
        </mask>
        <mask id="u">
            <g filter="url(#a)">
                <rect fill-opacity="0.8" height="184.32" width="184.32" x="-28.16" y="-28.16"/>
            </g>
        </mask>
        <linearGradient id="v" gradientTransform="matrix(0 0.37 -0.98462 0 295.38501 -30.360001)" gradientUnits="userSpaceOnUse" x1="300" x2="428" y1="235" y2="235">
            <stop offset="0" stop-color="#f9f06b"/>
            <stop offset="1" stop-color="#f5c211"/>
        </linearGradient>
        <clipPath id="w">
            <rect height="128" width="128"/>
        </clipPath>
        <clipPath id="x">
            <rect height="128" width="128"/>
        </clipPath>
    </defs>
    <path d="m 12 24 h 104 v 84 c 0 4.417969 -3.582031 8 -8 8 h -88 c -4.417969 0 -8 -3.582031 -8 -8 z m 0 0" fill="url(#b)"/>
    <path d="m 12 92 h 90 v 16 h -82 c -4.417969 0 -8 -3.582031 -8 -8 z m 0 0" fill="url(#c)"/>
    <path d="m 20 0 c -4.417969 0 -8 3.582031 -8 8 v 92 c 0 -4.417969 3.582031 -8 8 -8 c 3.644531 0.097656 5.65625 1.785156 6.75 4.160156 c 1.835938 3.980469 4.832031 7.839844 9.25 7.839844 h 62 c 2.210938 0 4 1.789062 4 4 h 6 c 4.417969 0 8 -3.582031 8 -8 v -80 c 0 -4.417969 -3.582031 -8 -8 -8 h -71.976562 c -4.429688 0 -7.230469 -3.949219 -9.265626 -7.824219 c -1.199218 -2.285156 -3.320312 -3.898437 -6.757812 -4.175781 z m 0 0" fill="url(#d)"/>
    <g fill="none" stroke-width="2">
        <path d="m 116 71 h -13" stroke="#c71a1a"/>
        <path d="m 103 116 v -104" stroke="#c71a1a"/>
        <path d="m 103 116 v -8" stroke="#7e1717"/>
        <path d="m 103 23 h 13" stroke="#c71a1a"/>
    </g>
    <g clip-path="url(#e)">
        <g clip-path="url(#f)">
            <g mask="url(#g)">
                <use transform="matrix(1 0 0 1 -8 -16)" xlink:href="#n"/>
            </g>
            <g mask="url(#h)">
                <use transform="matrix(1 0 0 1 -8 -16)" xlink:href="#q"/>
            </g>
        </g>
    </g>
    <path d="m 65.003906 38.683594 l -6.316406 -0.683594 c 0.042969 3.199219 -0.425781 6.828125 -1.238281 10.667969 c -1.191407 5.375 -4.394531 16.640625 -9.46875 23.464843 l 5.585937 2.21875 c 4.4375 -7.210937 7.894532 -19.371093 9.304688 -25.386718 c 0.425781 -2.175782 0.980468 -4.820313 1.363281 -6.742188 c 0.257813 -1.066406 0.511719 -2.429687 0.769531 -3.539062 z m 14.71875 3.96875 l -5.121094 2.175781 c 3.074219 3.796875 6.101563 11.476563 7.210938 16.253906 l 5.417969 -2.515625 c -1.320313 -4.097656 -4.90625 -12.203125 -7.507813 -15.914062 z m -32 4.777344 l 0.511719 5.757812 c 1.28125 -0.210938 3.5 -0.511719 4.734375 -0.679688 c 2.347656 -0.300781 9.6875 -1.238281 12.246094 -1.238281 c 2.644531 0 4.140625 0.511719 4.140625 3.925781 c 0 4.179688 -0.554688 9.386719 -1.75 11.773438 c -0.683594 1.410156 -1.75 1.835938 -3.199219 1.835938 c -1.109375 0 -3.542969 -0.425782 -5.207031 -0.894532 l 0.898437 5.632813 c 1.492188 0.339843 3.496094 0.597656 5.160156 0.597656 c 3.199219 0 5.546876 -0.941406 7 -3.925781 c 1.789063 -3.671875 2.386719 -10.582032 2.386719 -15.617188 c 0 -6.1875 -3.199219 -8.191406 -7.679687 -8.191406 c -3.199219 0 -11.261719 0.9375 -14.675782 1.023438 c -1.578124 0.042968 -3.03125 0.085937 -4.566406 0 z m 0 0" fill="#f66151"/>
    <path d="m 116 95 h -13" fill="none" stroke="#c71a1a" stroke-width="2"/>
    <path d="m 103 47 h 13" fill="none" stroke="#c71a1a" stroke-width="2"/>
    <g mask="url(#t)">
        <g clip-path="url(#x)">
            <g mask="url(#u)">
                <g clip-path="url(#w)">
                    <path d="m 128 80.640625 v 47.359375 h -128 v -47.359375 z m 0 0" fill="url(#v)"/>
                    <path d="m 13.308594 80.640625 l 47.355468 47.359375 h 21.214844 l -47.359375 -47.359375 z m 42.421875 0 l 47.363281 47.359375 h 21.214844 l -47.363282 -47.359375 z m 42.429687 0 l 29.839844 29.839844 v -21.210938 l -8.628906 -8.628906 z m -98.160156 7.90625 v 21.214844 l 18.238281 18.238281 h 21.214844 z m 0 0"/>
                </g>
            </g>
        </g>
    </g>
</svg>
